AccountSearchControllerTest,
AccountSearchControllerTest,
AmendContractOverrideConTest,
BatchContractOrdersTest,
ContactLookupControllerTest,
ContractFSLOrderServiceTest,
ContractOrdersTest,
ContractServiceTest,
ContractTriggerHelperTest,
CPQOrdersTest,
DeleteOrderWOUtilityTest,
ExceptionLogUtilityTest,
FSLRecurringAppointmentBatchTest,
GenericOrderScheduleableTest,
GUIDGeneratorTest,
HTTPMockCallout,
MaintenancePlanDynamicAsyncTest,
MaintenancePlansAndLinesTest,
MaintenancePlanTriggerServiceTest,
MaintenancePlanTriggerServiceTest,
MaintenancePlanTriggerTest,
OMTestDataUtility,
OrderServiceTest,
OrderSettingsTest,
OrderTriggerHandlerTest,
PaymentCaptureServiceTest,
PickupOrdersTest,
QuickQuoteControllerTest,
QuoteLineItemServiceTest,
QuoteLineItemTriggerServiceTest,
QuoteLineItemTriggerServiceTest,
QuoteOverrideEditControllerTest,
QuoteShortTermPluginTest,
QuoteTriggerHelperTest,
QuoteUpdateActionTest,
QuoteUtilsTest,
RecurringAppointmentBuilderTest,
RecurringAppointmentServiceTest,
RecurringAppointmentTriggerServiceTest,
SchemaServiceTest,
SubscriptionSyncTest,
SubscriptionSyncTest,
SubscriptionTriggerHelperTest,
TestCoverageHelper,
USF_AccountContactTriggerHandler_Test,
USF_AccountTriggerHandler_Test,
USF_EmailCongaDocControllerTest,
USF_EmailCongaDocControllerTest,
USF_QuoteInfoTest,
USF_TestDataFactory,
WOLISyncTest,
WorkOrderServiceTest,
WorkOrderTriggerTest,
Z_AsyncOrderRequest_Test,
Z_BillingLogicUtilityTest,
Z_ContractTriggerHandlerTest,
Z_InsertCustPbeQueueableTest,
Z_PcatLoadTest,
Z_ProcessResponseTest,
Z_SchedulableUpdateSubTest,
Z_ScheduledContractCleanupTest,
Z_SendProductsToZuoraQueueableTest,
Z_SubmitToZuoraQueuable_Test,
Z_SubscriptionTriggerTest,
ZipCodeSearchControllerTest,
ZuoraSubmitContractOrderPluginTest,
ZuoraTestsBase